(kicad_pcb (version 20171130) (host pcbnew "(5.0.0-rc2-227-g9b1f2447b)")

  (general
    (thickness 1.6)
    (drawings 11)
    (tracks 286)
    (zones 0)
    (modules 3)
    (nets 51)
  )

  (page A4)
  (layers
    (0 F.Cu signal)
    (31 B.Cu signal)
    (32 B.Adhes user)
    (33 F.Adhes user)
    (34 B.Paste user)
    (35 F.Paste user)
    (36 B.SilkS user)
    (37 F.SilkS user)
    (38 B.Mask user)
    (39 F.Mask user)
    (40 Dwgs.User user)
    (41 Cmts.User user)
    (42 Eco1.User user)
    (43 Eco2.User user)
    (44 Edge.Cuts user)
    (45 Margin user)
    (46 B.CrtYd user)
    (47 F.CrtYd user)
    (48 B.Fab user)
    (49 F.Fab user)
  )

  (setup
    (last_trace_width 0.1524)
    (trace_clearance 0.1524)
    (zone_clearance 0.2)
    (zone_45_only no)
    (trace_min 0.1523)
    (segment_width 0.2)
    (edge_width 0.15)
    (via_size 0.6)
    (via_drill 0.35)
    (via_min_size 0.38)
    (via_min_drill 0.253)
    (uvia_size 0.3)
    (uvia_drill 0.1)
    (uvias_allowed no)
    (uvia_min_size 0.2)
    (uvia_min_drill 0.1)
    (pcb_text_width 0.3)
    (pcb_text_size 1.5 1.5)
    (mod_edge_width 0.15)
    (mod_text_size 1 1)
    (mod_text_width 0.15)
    (pad_size 1.7 1.7)
    (pad_drill 1)
    (pad_to_mask_clearance 0.2)
    (aux_axis_origin 0 0)
    (grid_origin 100 100)
    (visible_elements FFFFFF7F)
    (pcbplotparams
      (layerselection 0x010fc_ffffffff)
      (usegerberextensions false)
      (usegerberattributes false)
      (usegerberadvancedattributes false)
      (creategerberjobfile false)
      (excludeedgelayer true)
      (linewidth 0.100000)
      (plotframeref false)
      (viasonmask false)
      (mode 1)
      (useauxorigin false)
      (hpglpennumber 1)
      (hpglpenspeed 20)
      (hpglpendiameter 15.000000)
      (psnegative false)
      (psa4output false)
      (plotreference true)
      (plotvalue true)
      (plotinvisibletext false)
      (padsonsilk false)
      (subtractmaskfromsilk false)
      (outputformat 1)
      (mirror false)
      (drillshape 0)
      (scaleselection 1)
      (outputdirectory "gerbers"))
  )

  (net 0 "")
  (net 1 3v3)
  (net 2 GND)
  (net 3 A1)
  (net 4 A2)
  (net 5 A3)
  (net 6 A4)
  (net 7 A5)
  (net 8 A6)
  (net 9 A7)
  (net 10 A8)
  (net 11 A9)
  (net 12 A10)
  (net 13 A11)
  (net 14 A12)
  (net 15 A13)
  (net 16 A14)
  (net 17 A16)
  (net 18 A15)
  (net 19 A17)
  (net 20 A18)
  (net 21 A19)
  (net 22 A20)
  (net 23 A21)
  (net 24 A22)
  (net 25 A23)
  (net 26 A24)
  (net 27 B24)
  (net 28 B23)
  (net 29 B22)
  (net 30 B21)
  (net 31 B20)
  (net 32 B19)
  (net 33 B18)
  (net 34 B17)
  (net 35 B16)
  (net 36 B15)
  (net 37 B14)
  (net 38 B13)
  (net 39 B12)
  (net 40 B11)
  (net 41 B10)
  (net 42 B9)
  (net 43 B8)
  (net 44 B7)
  (net 45 B6)
  (net 46 B5)
  (net 47 B4)
  (net 48 B3)
  (net 49 B2)
  (net 50 B1)

  (net_class Default "This is the default net class."
    (clearance 0.1524)
    (trace_width 0.1524)
    (via_dia 0.6)
    (via_drill 0.35)
    (uvia_dia 0.3)
    (uvia_drill 0.1)
    (add_net A1)
    (add_net A10)
    (add_net A11)
    (add_net A12)
    (add_net A13)
    (add_net A14)
    (add_net A15)
    (add_net A16)
    (add_net A17)
    (add_net A18)
    (add_net A19)
    (add_net A2)
    (add_net A20)
    (add_net A21)
    (add_net A22)
    (add_net A23)
    (add_net A24)
    (add_net A3)
    (add_net A4)
    (add_net A5)
    (add_net A6)
    (add_net A7)
    (add_net A8)
    (add_net A9)
    (add_net B1)
    (add_net B10)
    (add_net B11)
    (add_net B12)
    (add_net B13)
    (add_net B14)
    (add_net B15)
    (add_net B16)
    (add_net B17)
    (add_net B18)
    (add_net B19)
    (add_net B2)
    (add_net B20)
    (add_net B21)
    (add_net B22)
    (add_net B23)
    (add_net B24)
    (add_net B3)
    (add_net B4)
    (add_net B5)
    (add_net B6)
    (add_net B7)
    (add_net B8)
    (add_net B9)
  )

  (net_class PWR ""
    (clearance 0.1524)
    (trace_width 0.25)
    (via_dia 0.6)
    (via_drill 0.35)
    (uvia_dia 0.3)
    (uvia_drill 0.1)
    (add_net 3v3)
    (add_net GND)
  )

  (module Connector_PinHeader_2.54mm:PinHeader_2x14_P2.54mm_Vertical (layer F.Cu) (tedit 5B54AAC2) (tstamp 5B58515D)
    (at 82.22 109.98)
    (descr "Through hole straight pin header, 2x14, 2.54mm pitch, double rows")
    (tags "Through hole pin header THT 2x14 2.54mm double row")
    (fp_text reference A (at 1.27 -2.33) (layer F.SilkS)
      (effects (font (size 1 1) (thickness 0.15)))
    )
    (fp_text value " " (at 1.27 35.35) (layer F.Fab)
      (effects (font (size 1 1) (thickness 0.15)))
    )
    (fp_text user %R (at 1.27 16.51 90) (layer F.Fab)
      (effects (font (size 1 1) (thickness 0.15)))
    )
    (fp_line (start 4.35 -1.8) (end -1.8 -1.8) (layer F.CrtYd) (width 0.05))
    (fp_line (start 4.35 34.8) (end 4.35 -1.8) (layer F.CrtYd) (width 0.05))
    (fp_line (start -1.8 34.8) (end 4.35 34.8) (layer F.CrtYd) (width 0.05))
    (fp_line (start -1.8 -1.8) (end -1.8 34.8) (layer F.CrtYd) (width 0.05))
    (fp_line (start -1.33 -1.33) (end 0 -1.33) (layer F.SilkS) (width 0.12))
    (fp_line (start -1.33 0) (end -1.33 -1.33) (layer F.SilkS) (width 0.12))
    (fp_line (start 1.27 -1.33) (end 3.87 -1.33) (layer F.SilkS) (width 0.12))
    (fp_line (start 1.27 1.27) (end 1.27 -1.33) (layer F.SilkS) (width 0.12))
    (fp_line (start -1.33 1.27) (end 1.27 1.27) (layer F.SilkS) (width 0.12))
    (fp_line (start 3.87 -1.33) (end 3.87 34.35) (layer F.SilkS) (width 0.12))
    (fp_line (start -1.33 1.27) (end -1.33 34.35) (layer F.SilkS) (width 0.12))
    (fp_line (start -1.33 34.35) (end 3.87 34.35) (layer F.SilkS) (width 0.12))
    (fp_line (start -1.27 0) (end 0 -1.27) (layer F.Fab) (width 0.1))
    (fp_line (start -1.27 34.29) (end -1.27 0) (layer F.Fab) (width 0.1))
    (fp_line (start 3.81 34.29) (end -1.27 34.29) (layer F.Fab) (width 0.1))
    (fp_line (start 3.81 -1.27) (end 3.81 34.29) (layer F.Fab) (width 0.1))
    (fp_line (start 0 -1.27) (end 3.81 -1.27) (layer F.Fab) (width 0.1))
    (pad 28 thru_hole oval (at 2.54 33.02) (size 1.7 1.7) (drill 1) (layers *.Cu *.Mask)
      (net 2 GND))
    (pad 27 thru_hole oval (at 0 33.02) (size 1.7 1.7) (drill 1) (layers *.Cu *.Mask)
      (net 2 GND))
    (pad 26 thru_hole oval (at 2.54 30.48) (size 1.7 1.7) (drill 1) (layers *.Cu *.Mask)
      (net 26 A24))
    (pad 25 thru_hole oval (at 0 30.48) (size 1.7 1.7) (drill 1) (layers *.Cu *.Mask)
      (net 25 A23))
    (pad 24 thru_hole oval (at 2.54 27.94) (size 1.7 1.7) (drill 1) (layers *.Cu *.Mask)
      (net 24 A22))
    (pad 23 thru_hole oval (at 0 27.94) (size 1.7 1.7) (drill 1) (layers *.Cu *.Mask)
      (net 23 A21))
    (pad 22 thru_hole oval (at 2.54 25.4) (size 1.7 1.7) (drill 1) (layers *.Cu *.Mask)
      (net 22 A20))
    (pad 21 thru_hole oval (at 0 25.4) (size 1.7 1.7) (drill 1) (layers *.Cu *.Mask)
      (net 21 A19))
    (pad 20 thru_hole oval (at 2.54 22.86) (size 1.7 1.7) (drill 1) (layers *.Cu *.Mask)
      (net 20 A18))
    (pad 19 thru_hole oval (at 0 22.86) (size 1.7 1.7) (drill 1) (layers *.Cu *.Mask)
      (net 19 A17))
    (pad 18 thru_hole oval (at 2.54 20.32) (size 1.7 1.7) (drill 1) (layers *.Cu *.Mask)
      (net 17 A16))
    (pad 17 thru_hole oval (at 0 20.32) (size 1.7 1.7) (drill 1) (layers *.Cu *.Mask)
      (net 18 A15))
    (pad 16 thru_hole oval (at 2.54 17.78) (size 1.7 1.7) (drill 1) (layers *.Cu *.Mask)
      (net 16 A14))
    (pad 15 thru_hole oval (at 0 17.78) (size 1.7 1.7) (drill 1) (layers *.Cu *.Mask)
      (net 15 A13))
    (pad 14 thru_hole oval (at 2.54 15.24) (size 1.7 1.7) (drill 1) (layers *.Cu *.Mask)
      (net 14 A12))
    (pad 13 thru_hole oval (at 0 15.24) (size 1.7 1.7) (drill 1) (layers *.Cu *.Mask)
      (net 13 A11))
    (pad 12 thru_hole oval (at 2.54 12.7) (size 1.7 1.7) (drill 1) (layers *.Cu *.Mask)
      (net 12 A10))
    (pad 11 thru_hole oval (at 0 12.7) (size 1.7 1.7) (drill 1) (layers *.Cu *.Mask)
      (net 11 A9))
    (pad 10 thru_hole oval (at 2.54 10.16) (size 1.7 1.7) (drill 1) (layers *.Cu *.Mask)
      (net 10 A8))
    (pad 9 thru_hole oval (at 0 10.16) (size 1.7 1.7) (drill 1) (layers *.Cu *.Mask)
      (net 9 A7))
    (pad 8 thru_hole oval (at 2.54 7.62) (size 1.7 1.7) (drill 1) (layers *.Cu *.Mask)
      (net 8 A6))
    (pad 7 thru_hole oval (at 0 7.62) (size 1.7 1.7) (drill 1) (layers *.Cu *.Mask)
      (net 7 A5))
    (pad 6 thru_hole oval (at 2.54 5.08) (size 1.7 1.7) (drill 1) (layers *.Cu *.Mask)
      (net 6 A4))
    (pad 5 thru_hole oval (at 0 5.08) (size 1.7 1.7) (drill 1) (layers *.Cu *.Mask)
      (net 5 A3))
    (pad 4 thru_hole oval (at 2.54 2.54) (size 1.7 1.7) (drill 1) (layers *.Cu *.Mask)
      (net 4 A2))
    (pad 3 thru_hole oval (at 0 2.54) (size 1.7 1.7) (drill 1) (layers *.Cu *.Mask)
      (net 3 A1))
    (pad 2 thru_hole oval (at 2.54 0) (size 1.7 1.7) (drill 1) (layers *.Cu *.Mask)
      (net 1 3v3))
    (pad 1 thru_hole rect (at 0 0.02) (size 1.7 1.7) (drill 1) (layers *.Cu *.Mask)
      (net 1 3v3))
    (model ${KISYS3DMOD}/Connector_PinHeader_2.54mm.3dshapes/PinHeader_2x14_P2.54mm_Vertical.wrl
      (at (xyz 0 0 0))
      (scale (xyz 1 1 1))
      (rotate (xyz 0 0 0))
    )
  )

  (module Connector_PinHeader_2.54mm:PinHeader_2x14_P2.54mm_Vertical (layer F.Cu) (tedit 5B54AAC5) (tstamp 5B5845D4)
    (at 115.24 110)
    (descr "Through hole straight pin header, 2x14, 2.54mm pitch, double rows")
    (tags "Through hole pin header THT 2x14 2.54mm double row")
    (fp_text reference B (at 1.27 -2.33) (layer F.SilkS)
      (effects (font (size 1 1) (thickness 0.15)))
    )
    (fp_text value " " (at 1.27 35.35) (layer F.Fab)
      (effects (font (size 1 1) (thickness 0.15)))
    )
    (fp_text user %R (at 1.27 16.51 90) (layer F.Fab)
      (effects (font (size 1 1) (thickness 0.15)))
    )
    (fp_line (start 4.35 -1.8) (end -1.8 -1.8) (layer F.CrtYd) (width 0.05))
    (fp_line (start 4.35 34.8) (end 4.35 -1.8) (layer F.CrtYd) (width 0.05))
    (fp_line (start -1.8 34.8) (end 4.35 34.8) (layer F.CrtYd) (width 0.05))
    (fp_line (start -1.8 -1.8) (end -1.8 34.8) (layer F.CrtYd) (width 0.05))
    (fp_line (start -1.33 -1.33) (end 0 -1.33) (layer F.SilkS) (width 0.12))
    (fp_line (start -1.33 0) (end -1.33 -1.33) (layer F.SilkS) (width 0.12))
    (fp_line (start 1.27 -1.33) (end 3.87 -1.33) (layer F.SilkS) (width 0.12))
    (fp_line (start 1.27 1.27) (end 1.27 -1.33) (layer F.SilkS) (width 0.12))
    (fp_line (start -1.33 1.27) (end 1.27 1.27) (layer F.SilkS) (width 0.12))
    (fp_line (start 3.87 -1.33) (end 3.87 34.35) (layer F.SilkS) (width 0.12))
    (fp_line (start -1.33 1.27) (end -1.33 34.35) (layer F.SilkS) (width 0.12))
    (fp_line (start -1.33 34.35) (end 3.87 34.35) (layer F.SilkS) (width 0.12))
    (fp_line (start -1.27 0) (end 0 -1.27) (layer F.Fab) (width 0.1))
    (fp_line (start -1.27 34.29) (end -1.27 0) (layer F.Fab) (width 0.1))
    (fp_line (start 3.81 34.29) (end -1.27 34.29) (layer F.Fab) (width 0.1))
    (fp_line (start 3.81 -1.27) (end 3.81 34.29) (layer F.Fab) (width 0.1))
    (fp_line (start 0 -1.27) (end 3.81 -1.27) (layer F.Fab) (width 0.1))
    (pad 28 thru_hole oval (at 2.54 33.02) (size 1.7 1.7) (drill 1) (layers *.Cu *.Mask)
      (net 2 GND))
    (pad 27 thru_hole oval (at 0 33.02) (size 1.7 1.7) (drill 1) (layers *.Cu *.Mask)
      (net 2 GND))
    (pad 26 thru_hole oval (at 2.54 30.48) (size 1.7 1.7) (drill 1) (layers *.Cu *.Mask)
      (net 27 B24))
    (pad 25 thru_hole oval (at 0 30.48) (size 1.7 1.7) (drill 1) (layers *.Cu *.Mask)
      (net 28 B23))
    (pad 24 thru_hole oval (at 2.54 27.94) (size 1.7 1.7) (drill 1) (layers *.Cu *.Mask)
      (net 29 B22))
    (pad 23 thru_hole oval (at 0 27.94) (size 1.7 1.7) (drill 1) (layers *.Cu *.Mask)
      (net 30 B21))
    (pad 22 thru_hole oval (at 2.54 25.4) (size 1.7 1.7) (drill 1) (layers *.Cu *.Mask)
      (net 31 B20))
    (pad 21 thru_hole oval (at 0 25.4) (size 1.7 1.7) (drill 1) (layers *.Cu *.Mask)
      (net 32 B19))
    (pad 20 thru_hole oval (at 2.54 22.86) (size 1.7 1.7) (drill 1) (layers *.Cu *.Mask)
      (net 33 B18))
    (pad 19 thru_hole oval (at 0 22.86) (size 1.7 1.7) (drill 1) (layers *.Cu *.Mask)
      (net 34 B17))
    (pad 18 thru_hole oval (at 2.54 20.32) (size 1.7 1.7) (drill 1) (layers *.Cu *.Mask)
      (net 35 B16))
    (pad 17 thru_hole oval (at 0 20.32) (size 1.7 1.7) (drill 1) (layers *.Cu *.Mask)
      (net 36 B15))
    (pad 16 thru_hole oval (at 2.54 17.78) (size 1.7 1.7) (drill 1) (layers *.Cu *.Mask)
      (net 37 B14))
    (pad 15 thru_hole oval (at 0 17.78) (size 1.7 1.7) (drill 1) (layers *.Cu *.Mask)
      (net 38 B13))
    (pad 14 thru_hole oval (at 2.54 15.24) (size 1.7 1.7) (drill 1) (layers *.Cu *.Mask)
      (net 39 B12))
    (pad 13 thru_hole oval (at 0 15.24) (size 1.7 1.7) (drill 1) (layers *.Cu *.Mask)
      (net 40 B11))
    (pad 12 thru_hole oval (at 2.54 12.7) (size 1.7 1.7) (drill 1) (layers *.Cu *.Mask)
      (net 41 B10))
    (pad 11 thru_hole oval (at 0 12.7) (size 1.7 1.7) (drill 1) (layers *.Cu *.Mask)
      (net 42 B9))
    (pad 10 thru_hole oval (at 2.54 10.16) (size 1.7 1.7) (drill 1) (layers *.Cu *.Mask)
      (net 43 B8))
    (pad 9 thru_hole oval (at 0 10.16) (size 1.7 1.7) (drill 1) (layers *.Cu *.Mask)
      (net 44 B7))
    (pad 8 thru_hole oval (at 2.54 7.62) (size 1.7 1.7) (drill 1) (layers *.Cu *.Mask)
      (net 45 B6))
    (pad 7 thru_hole oval (at 0 7.62) (size 1.7 1.7) (drill 1) (layers *.Cu *.Mask)
      (net 46 B5))
    (pad 6 thru_hole oval (at 2.54 5.08) (size 1.7 1.7) (drill 1) (layers *.Cu *.Mask)
      (net 47 B4))
    (pad 5 thru_hole oval (at 0 5.08) (size 1.7 1.7) (drill 1) (layers *.Cu *.Mask)
      (net 48 B3))
    (pad 4 thru_hole oval (at 2.54 2.54) (size 1.7 1.7) (drill 1) (layers *.Cu *.Mask)
      (net 49 B2))
    (pad 3 thru_hole oval (at 0 2.54) (size 1.7 1.7) (drill 1) (layers *.Cu *.Mask)
      (net 50 B1))
    (pad 2 thru_hole oval (at 2.54 0) (size 1.7 1.7) (drill 1) (layers *.Cu *.Mask)
      (net 1 3v3))
    (pad 1 thru_hole rect (at 0 0) (size 1.7 1.7) (drill 1) (layers *.Cu *.Mask)
      (net 1 3v3))
    (model ${KISYS3DMOD}/Connector_PinHeader_2.54mm.3dshapes/PinHeader_2x14_P2.54mm_Vertical.wrl
      (at (xyz 0 0 0))
      (scale (xyz 1 1 1))
      (rotate (xyz 0 0 0))
    )
  )

  (module footprints:MEC6-140-RA-EDGE (layer F.Cu) (tedit 5B54B095) (tstamp 5B606058)
    (at 100 100)
    (fp_text reference " " (at 0 1.5) (layer F.SilkS)
      (effects (font (size 1 1) (thickness 0.15)))
    )
    (fp_text value " " (at 0 4) (layer F.Fab)
      (effects (font (size 1 1) (thickness 0.15)))
    )
    (fp_line (start 13.4 -5.5) (end 13.4 0) (layer Edge.Cuts) (width 0.15))
    (fp_line (start -13.4 -5.5) (end -13.4 0) (layer Edge.Cuts) (width 0.15))
    (fp_line (start -13.4 -5.5) (end 13.4 -5.5) (layer Edge.Cuts) (width 0.15))
    (fp_poly (pts (xy -13.4 -5.5) (xy -13.4 0) (xy 13.4 0) (xy 13.4 -5.5)) (layer F.Mask) (width 0.15))
    (fp_poly (pts (xy -13.4 -5.5) (xy -13.4 0) (xy 13.4 0) (xy 13.4 -5.5)) (layer B.Mask) (width 0.15))
    (pad 80 smd rect (at 12.3825 -2.5) (size 0.3 4) (layers F.Cu)
      (net 1 3v3))
    (pad 78 smd rect (at 11.7475 -2.5) (size 0.3 4) (layers F.Cu)
      (net 2 GND))
    (pad 76 smd rect (at 11.1125 -2.5) (size 0.3 4) (layers F.Cu)
      (net 26 A24))
    (pad 74 smd rect (at 10.4775 -2.5) (size 0.3 4) (layers F.Cu)
      (net 25 A23))
    (pad 72 smd rect (at 9.8425 -2.5) (size 0.3 4) (layers F.Cu)
      (net 2 GND))
    (pad 70 smd rect (at 9.2075 -2.5) (size 0.3 4) (layers F.Cu)
      (net 24 A22))
    (pad 68 smd rect (at 8.5725 -2.5) (size 0.3 4) (layers F.Cu)
      (net 23 A21))
    (pad 66 smd rect (at 7.9375 -2.5) (size 0.3 4) (layers F.Cu)
      (net 2 GND))
    (pad 64 smd rect (at 7.3025 -2.5) (size 0.3 4) (layers F.Cu)
      (net 22 A20))
    (pad 62 smd rect (at 6.6675 -2.5) (size 0.3 4) (layers F.Cu)
      (net 21 A19))
    (pad 60 smd rect (at 6.0325 -2.5) (size 0.3 4) (layers F.Cu)
      (net 2 GND))
    (pad 58 smd rect (at 5.3975 -2.5) (size 0.3 4) (layers F.Cu)
      (net 20 A18))
    (pad 56 smd rect (at 4.7625 -2.5) (size 0.3 4) (layers F.Cu)
      (net 19 A17))
    (pad 54 smd rect (at 4.1275 -2.5) (size 0.3 4) (layers F.Cu)
      (net 2 GND))
    (pad 52 smd rect (at 3.4925 -2.5) (size 0.3 4) (layers F.Cu)
      (net 17 A16))
    (pad 50 smd rect (at 2.8575 -2.5) (size 0.3 4) (layers F.Cu)
      (net 18 A15))
    (pad 48 smd rect (at 2.2225 -2.5) (size 0.3 4) (layers F.Cu)
      (net 2 GND))
    (pad 46 smd rect (at 1.5875 -2.5) (size 0.3 4) (layers F.Cu)
      (net 16 A14))
    (pad 44 smd rect (at 0.9525 -2.5) (size 0.3 4) (layers F.Cu)
      (net 15 A13))
    (pad 42 smd rect (at 0.3175 -2.5) (size 0.3 4) (layers F.Cu)
      (net 2 GND))
    (pad 40 smd rect (at -0.3175 -2.5) (size 0.3 4) (layers F.Cu)
      (net 2 GND))
    (pad 38 smd rect (at -0.9525 -2.5) (size 0.3 4) (layers F.Cu)
      (net 14 A12))
    (pad 36 smd rect (at -1.5875 -2.5) (size 0.3 4) (layers F.Cu)
      (net 13 A11))
    (pad 34 smd rect (at -2.2225 -2.5) (size 0.3 4) (layers F.Cu)
      (net 2 GND))
    (pad 32 smd rect (at -2.8575 -2.5) (size 0.3 4) (layers F.Cu)
      (net 12 A10))
    (pad 30 smd rect (at -3.4925 -2.5) (size 0.3 4) (layers F.Cu)
      (net 11 A9))
    (pad 28 smd rect (at -4.1275 -2.5) (size 0.3 4) (layers F.Cu)
      (net 2 GND))
    (pad 26 smd rect (at -4.7625 -2.5) (size 0.3 4) (layers F.Cu)
      (net 10 A8))
    (pad 24 smd rect (at -5.3975 -2.5) (size 0.3 4) (layers F.Cu)
      (net 9 A7))
    (pad 22 smd rect (at -6.0325 -2.5) (size 0.3 4) (layers F.Cu)
      (net 2 GND))
    (pad 20 smd rect (at -6.6675 -2.5) (size 0.3 4) (layers F.Cu)
      (net 8 A6))
    (pad 18 smd rect (at -7.3025 -2.5) (size 0.3 4) (layers F.Cu)
      (net 7 A5))
    (pad 16 smd rect (at -7.9375 -2.5) (size 0.3 4) (layers F.Cu)
      (net 2 GND))
    (pad 14 smd rect (at -8.5725 -2.5) (size 0.3 4) (layers F.Cu)
      (net 6 A4))
    (pad 12 smd rect (at -9.2075 -2.5) (size 0.3 4) (layers F.Cu)
      (net 5 A3))
    (pad 10 smd rect (at -9.8425 -2.5) (size 0.3 4) (layers F.Cu)
      (net 2 GND))
    (pad 8 smd rect (at -10.4775 -2.5) (size 0.3 4) (layers F.Cu)
      (net 4 A2))
    (pad 6 smd rect (at -11.1125 -2.5) (size 0.3 4) (layers F.Cu)
      (net 3 A1))
    (pad 4 smd rect (at -11.7475 -2.5) (size 0.3 4) (layers F.Cu)
      (net 2 GND))
    (pad 2 smd rect (at -12.3825 -2.5) (size 0.3 4) (layers F.Cu)
      (net 1 3v3))
    (pad 1 smd rect (at -12.3825 -2.5) (size 0.3 4) (layers B.Cu)
      (net 1 3v3))
    (pad 3 smd rect (at -11.7475 -2.5) (size 0.3 4) (layers B.Cu)
      (net 2 GND))
    (pad 5 smd rect (at -11.1125 -2.5) (size 0.3 4) (layers B.Cu)
      (net 27 B24))
    (pad 7 smd rect (at -10.4775 -2.5) (size 0.3 4) (layers B.Cu)
      (net 28 B23))
    (pad 9 smd rect (at -9.8425 -2.5) (size 0.3 4) (layers B.Cu)
      (net 2 GND))
    (pad 11 smd rect (at -9.2075 -2.5) (size 0.3 4) (layers B.Cu)
      (net 29 B22))
    (pad 13 smd rect (at -8.5725 -2.5) (size 0.3 4) (layers B.Cu)
      (net 30 B21))
    (pad 15 smd rect (at -7.9375 -2.5) (size 0.3 4) (layers B.Cu)
      (net 2 GND))
    (pad 17 smd rect (at -7.3025 -2.5) (size 0.3 4) (layers B.Cu)
      (net 31 B20))
    (pad 19 smd rect (at -6.6675 -2.5) (size 0.3 4) (layers B.Cu)
      (net 32 B19))
    (pad 21 smd rect (at -6.0325 -2.5) (size 0.3 4) (layers B.Cu)
      (net 2 GND))
    (pad 23 smd rect (at -5.3975 -2.5) (size 0.3 4) (layers B.Cu)
      (net 33 B18))
    (pad 25 smd rect (at -4.7625 -2.5) (size 0.3 4) (layers B.Cu)
      (net 34 B17))
    (pad 27 smd rect (at -4.1275 -2.5) (size 0.3 4) (layers B.Cu)
      (net 2 GND))
    (pad 29 smd rect (at -3.4925 -2.5) (size 0.3 4) (layers B.Cu)
      (net 35 B16))
    (pad 31 smd rect (at -2.8575 -2.5) (size 0.3 4) (layers B.Cu)
      (net 36 B15))
    (pad 33 smd rect (at -2.2225 -2.5) (size 0.3 4) (layers B.Cu)
      (net 2 GND))
    (pad 35 smd rect (at -1.5875 -2.5) (size 0.3 4) (layers B.Cu)
      (net 37 B14))
    (pad 37 smd rect (at -0.9525 -2.5) (size 0.3 4) (layers B.Cu)
      (net 38 B13))
    (pad 39 smd rect (at -0.3175 -2.5) (size 0.3 4) (layers B.Cu)
      (net 2 GND))
    (pad 41 smd rect (at 0.3175 -2.5) (size 0.3 4) (layers B.Cu)
      (net 2 GND))
    (pad 43 smd rect (at 0.9525 -2.5) (size 0.3 4) (layers B.Cu)
      (net 39 B12))
    (pad 45 smd rect (at 1.5875 -2.5) (size 0.3 4) (layers B.Cu)
      (net 40 B11))
    (pad 47 smd rect (at 2.2225 -2.5) (size 0.3 4) (layers B.Cu)
      (net 2 GND))
    (pad 49 smd rect (at 2.8575 -2.5) (size 0.3 4) (layers B.Cu)
      (net 41 B10))
    (pad 51 smd rect (at 3.4925 -2.5) (size 0.3 4) (layers B.Cu)
      (net 42 B9))
    (pad 53 smd rect (at 4.1275 -2.5) (size 0.3 4) (layers B.Cu)
      (net 2 GND))
    (pad 55 smd rect (at 4.7625 -2.5) (size 0.3 4) (layers B.Cu)
      (net 43 B8))
    (pad 57 smd rect (at 5.3975 -2.5) (size 0.3 4) (layers B.Cu)
      (net 44 B7))
    (pad 59 smd rect (at 6.0325 -2.5) (size 0.3 4) (layers B.Cu)
      (net 2 GND))
    (pad 61 smd rect (at 6.6675 -2.5) (size 0.3 4) (layers B.Cu)
      (net 45 B6))
    (pad 63 smd rect (at 7.3025 -2.5) (size 0.3 4) (layers B.Cu)
      (net 46 B5))
    (pad 65 smd rect (at 7.9375 -2.5) (size 0.3 4) (layers B.Cu)
      (net 2 GND))
    (pad 67 smd rect (at 8.5725 -2.5) (size 0.3 4) (layers B.Cu)
      (net 47 B4))
    (pad 69 smd rect (at 9.2075 -2.5) (size 0.3 4) (layers B.Cu)
      (net 48 B3))
    (pad 71 smd rect (at 9.8425 -2.5) (size 0.3 4) (layers B.Cu)
      (net 2 GND))
    (pad 73 smd rect (at 10.4775 -2.5) (size 0.3 4) (layers B.Cu)
      (net 49 B2))
    (pad 75 smd rect (at 11.1125 -2.5) (size 0.3 4) (layers B.Cu)
      (net 50 B1))
    (pad 77 smd rect (at 11.7475 -2.5) (size 0.3 4) (layers B.Cu)
      (net 2 GND))
    (pad 79 smd rect (at 12.3825 -2.5) (size 0.3 4) (layers B.Cu)
      (net 1 3v3))
  )

  (gr_line (start 120 107.5) (end 120 150) (layer Edge.Cuts) (width 0.15))
  (gr_line (start 120 100) (end 120 102.5) (layer Edge.Cuts) (width 0.15))
  (gr_arc (start 120 105) (end 120 102.5) (angle -180) (layer Edge.Cuts) (width 0.15))
  (gr_line (start 80 107.5) (end 80 150) (layer Edge.Cuts) (width 0.15))
  (gr_line (start 80 100) (end 80 102.5) (layer Edge.Cuts) (width 0.15))
  (gr_arc (start 80 105) (end 80 107.5) (angle -180) (layer Edge.Cuts) (width 0.15))
  (gr_line (start 102.5 150) (end 120 150) (layer Edge.Cuts) (width 0.15))
  (gr_line (start 80 150) (end 97.5 150) (layer Edge.Cuts) (width 0.15))
  (gr_arc (start 100 150) (end 102.5 150) (angle -180) (layer Edge.Cuts) (width 0.15))
  (gr_line (start 113.4 100) (end 120 100) (layer Edge.Cuts) (width 0.15))
  (gr_line (start 86.6 100) (end 80 100) (layer Edge.Cuts) (width 0.15))

  (segment (start 82.22 109.98) (end 82.22 110) (width 0.1524) (layer F.Cu) (net 1))
  (segment (start 82.22 109.98) (end 82.22 110) (width 0.25) (layer B.Cu) (net 1))
  (segment (start 87.6175 107.1225) (end 84.76 109.98) (width 0.25) (layer F.Cu) (net 1))
  (segment (start 87.6175 97.5) (end 87.6175 107.1225) (width 0.25) (layer F.Cu) (net 1))
  (segment (start 87.6175 107.1225) (end 84.76 109.98) (width 0.25) (layer B.Cu) (net 1))
  (segment (start 87.6175 97.5) (end 87.6175 107.1225) (width 0.25) (layer B.Cu) (net 1))
  (segment (start 83.557919 109.98) (end 82.22 109.98) (width 0.25) (layer B.Cu) (net 1))
  (segment (start 84.76 109.98) (end 83.557919 109.98) (width 0.25) (layer B.Cu) (net 1))
  (segment (start 115.24 110) (end 117.78 110) (width 0.25) (layer B.Cu) (net 1))
  (segment (start 115.08 110) (end 115.24 110) (width 0.25) (layer F.Cu) (net 1))
  (segment (start 112.3825 97.5) (end 112.3825 107.3025) (width 0.25) (layer F.Cu) (net 1))
  (segment (start 115.08 109.98) (end 115.08 109.9975) (width 0.25) (layer F.Cu) (net 1))
  (segment (start 112.3825 107.3) (end 112.4 107.3) (width 0.25) (layer F.Cu) (net 1))
  (segment (start 112.4 107.3) (end 115.08 109.98) (width 0.25) (layer F.Cu) (net 1))
  (segment (start 112.3825 97.5) (end 112.3825 107.2825) (width 0.25) (layer B.Cu) (net 1))
  (segment (start 115.1 110) (end 115.24 110) (width 0.25) (layer B.Cu) (net 1))
  (segment (start 112.3825 107.2825) (end 115.1 110) (width 0.25) (layer B.Cu) (net 1))
  (segment (start 102.2225 97.5) (end 102.2225 100.0775) (width 0.25) (layer F.Cu) (net 2))
  (segment (start 109.8425 97.5) (end 109.8425 100.0575) (width 0.25) (layer F.Cu) (net 2))
  (segment (start 92.0625 97.5) (end 92.0625 100.0625) (width 0.25) (layer F.Cu) (net 2))
  (segment (start 100.3175 97.5) (end 100.3175 99.7825) (width 0.25) (layer F.Cu) (net 2))
  (segment (start 106.0325 97.5) (end 106.0325 100.0675) (width 0.25) (layer B.Cu) (net 2))
  (segment (start 106.0325 97.5) (end 106.0325 100.0675) (width 0.25) (layer F.Cu) (net 2))
  (segment (start 104.1275 97.5) (end 104.1275 100.0725) (width 0.25) (layer F.Cu) (net 2))
  (segment (start 92.0625 97.5) (end 92.0625 100.0625) (width 0.25) (layer B.Cu) (net 2))
  (segment (start 93.9675 97.5) (end 93.9675 100.0675) (width 0.25) (layer B.Cu) (net 2))
  (segment (start 104.1275 97.5) (end 104.1275 100.0725) (width 0.25) (layer B.Cu) (net 2))
  (segment (start 99.6825 97.5) (end 99.6825 99.7825) (width 0.25) (layer F.Cu) (net 2))
  (segment (start 109.8425 97.5) (end 109.8425 100.0575) (width 0.25) (layer B.Cu) (net 2))
  (segment (start 102.2225 97.5) (end 102.2225 100.0775) (width 0.25) (layer B.Cu) (net 2))
  (segment (start 107.9375 97.5) (end 107.9375 100.0625) (width 0.25) (layer F.Cu) (net 2))
  (segment (start 100.3175 99.7825) (end 100.190499 99.909501) (width 0.25) (layer F.Cu) (net 2))
  (segment (start 95.8725 97.5) (end 95.8725 100.0725) (width 0.25) (layer B.Cu) (net 2))
  (segment (start 95.8725 97.5) (end 95.8725 100.0725) (width 0.25) (layer F.Cu) (net 2))
  (segment (start 90.1575 97.5) (end 90.1575 100.0575) (width 0.25) (layer B.Cu) (net 2))
  (segment (start 90.1575 97.5) (end 90.1575 100.0575) (width 0.25) (layer F.Cu) (net 2))
  (segment (start 93.9675 97.5) (end 93.9675 100.0675) (width 0.25) (layer F.Cu) (net 2))
  (segment (start 97.7775 97.5) (end 97.7775 100.0775) (width 0.25) (layer F.Cu) (net 2))
  (segment (start 99.6825 99.7825) (end 99.809501 99.909501) (width 0.25) (layer B.Cu) (net 2))
  (segment (start 100.3175 97.5) (end 100.3175 99.7825) (width 0.25) (layer B.Cu) (net 2))
  (segment (start 99.6825 97.5) (end 99.6825 99.7825) (width 0.25) (layer B.Cu) (net 2))
  (segment (start 97.7775 97.5) (end 97.7775 100.0775) (width 0.25) (layer B.Cu) (net 2))
  (segment (start 100.3175 99.7825) (end 100.190499 99.909501) (width 0.25) (layer B.Cu) (net 2))
  (segment (start 107.9375 97.5) (end 107.9375 100.0625) (width 0.25) (layer B.Cu) (net 2))
  (segment (start 99.6825 99.7825) (end 99.809501 99.909501) (width 0.25) (layer F.Cu) (net 2))
  (via (at 94 100.1) (size 0.6) (drill 0.35) (layers F.Cu B.Cu) (net 2))
  (segment (start 102.2225 100.0775) (end 102.2 100.1) (width 0.25) (layer B.Cu) (net 2))
  (via (at 102.2 100.1) (size 0.6) (drill 0.35) (layers F.Cu B.Cu) (net 2))
  (segment (start 109.8425 100.0575) (end 109.8 100.1) (width 0.25) (layer F.Cu) (net 2))
  (segment (start 92.0625 100.0625) (end 92.1 100.1) (width 0.25) (layer F.Cu) (net 2))
  (via (at 106 100.1) (size 0.6) (drill 0.35) (layers F.Cu B.Cu) (net 2))
  (segment (start 106.0325 100.0675) (end 106 100.1) (width 0.25) (layer B.Cu) (net 2))
  (segment (start 106.0325 100.0675) (end 106 100.1) (width 0.25) (layer F.Cu) (net 2))
  (segment (start 104.1275 100.0725) (end 104.1 100.1) (width 0.25) (layer F.Cu) (net 2))
  (via (at 95.9 100.1) (size 0.6) (drill 0.35) (layers F.Cu B.Cu) (net 2))
  (via (at 104.1 100.1) (size 0.6) (drill 0.35) (layers F.Cu B.Cu) (net 2))
  (segment (start 109.8425 100.0575) (end 109.8 100.1) (width 0.25) (layer B.Cu) (net 2))
  (segment (start 104.1275 100.0725) (end 104.1 100.1) (width 0.25) (layer B.Cu) (net 2))
  (via (at 92.1 100.1) (size 0.6) (drill 0.35) (layers F.Cu B.Cu) (net 2))
  (via (at 107.9 100.1) (size 0.6) (drill 0.35) (layers F.Cu B.Cu) (net 2))
  (segment (start 107.9375 100.0625) (end 107.9 100.1) (width 0.25) (layer F.Cu) (net 2))
  (segment (start 107.9375 100.0625) (end 107.9 100.1) (width 0.25) (layer B.Cu) (net 2))
  (segment (start 102.2225 100.0775) (end 102.2 100.1) (width 0.25) (layer F.Cu) (net 2))
  (segment (start 100.190499 99.909501) (end 100 100.1) (width 0.25) (layer F.Cu) (net 2))
  (segment (start 95.8725 100.0725) (end 95.9 100.1) (width 0.25) (layer F.Cu) (net 2))
  (segment (start 95.8725 100.0725) (end 95.9 100.1) (width 0.25) (layer B.Cu) (net 2))
  (segment (start 90.1575 100.0575) (end 90.2 100.1) (width 0.25) (layer F.Cu) (net 2))
  (segment (start 90.1575 100.0575) (end 90.2 100.1) (width 0.25) (layer B.Cu) (net 2))
  (segment (start 93.9675 100.0675) (end 94 100.1) (width 0.25) (layer B.Cu) (net 2))
  (segment (start 99.809501 99.909501) (end 100 100.1) (width 0.25) (layer B.Cu) (net 2))
  (via (at 100 100.1) (size 0.6) (drill 0.35) (layers F.Cu B.Cu) (net 2))
  (segment (start 99.809501 99.909501) (end 100 100.1) (width 0.25) (layer F.Cu) (net 2))
  (via (at 109.8 100.1) (size 0.6) (drill 0.35) (layers F.Cu B.Cu) (net 2))
  (segment (start 100.190499 99.909501) (end 100 100.1) (width 0.25) (layer B.Cu) (net 2))
  (segment (start 97.7775 100.0775) (end 97.8 100.1) (width 0.25) (layer B.Cu) (net 2))
  (via (at 97.8 100.1) (size 0.6) (drill 0.35) (layers F.Cu B.Cu) (net 2))
  (segment (start 97.7775 100.0775) (end 97.8 100.1) (width 0.25) (layer F.Cu) (net 2))
  (segment (start 92.0625 100.0625) (end 92.1 100.1) (width 0.25) (layer B.Cu) (net 2))
  (via (at 90.2 100.1) (size 0.6) (drill 0.35) (layers F.Cu B.Cu) (net 2))
  (segment (start 93.9675 100.0675) (end 94 100.1) (width 0.25) (layer F.Cu) (net 2))
  (segment (start 88.2525 139.5075) (end 84.76 143) (width 0.25) (layer B.Cu) (net 2))
  (segment (start 111.7475 139.5275) (end 115.24 143.02) (width 0.25) (layer F.Cu) (net 2))
  (segment (start 108.275 143) (end 111.7475 139.5275) (width 0.25) (layer F.Cu) (net 2))
  (segment (start 84.76 143) (end 108.275 143) (width 0.25) (layer F.Cu) (net 2))
  (segment (start 91.745 143) (end 88.2525 139.5075) (width 0.25) (layer B.Cu) (net 2))
  (segment (start 115.24 143.02) (end 115.22 143) (width 0.25) (layer B.Cu) (net 2))
  (segment (start 115.22 143) (end 91.745 143) (width 0.25) (layer B.Cu) (net 2))
  (segment (start 83.422081 143) (end 84.76 143) (width 0.25) (layer F.Cu) (net 2))
  (segment (start 82.22 143) (end 83.422081 143) (width 0.25) (layer F.Cu) (net 2))
  (segment (start 117.76 143) (end 117.78 143.02) (width 0.25) (layer B.Cu) (net 2))
  (segment (start 82.22 143) (end 117.76 143) (width 0.25) (layer B.Cu) (net 2))
  (segment (start 117.76 143) (end 117.78 143.02) (width 0.25) (layer F.Cu) (net 2))
  (segment (start 115.3 143) (end 117.76 143) (width 0.25) (layer F.Cu) (net 2))
  (segment (start 115.24 143.02) (end 115.28 143.02) (width 0.25) (layer F.Cu) (net 2))
  (segment (start 115.28 143.02) (end 115.3 143) (width 0.25) (layer F.Cu) (net 2))
  (segment (start 114.017919 143) (end 108.275 143) (width 0.25) (layer F.Cu) (net 2))
  (segment (start 115.24 143.02) (end 115.22 143) (width 0.25) (layer F.Cu) (net 2))
  (segment (start 115.22 143) (end 114.017919 143) (width 0.25) (layer F.Cu) (net 2))
  (segment (start 85.962081 143) (end 91.745 143) (width 0.25) (layer B.Cu) (net 2))
  (segment (start 84.76 143) (end 85.962081 143) (width 0.25) (layer B.Cu) (net 2))
  (via (at 88.2525 100.5) (size 0.6) (drill 0.35) (layers F.Cu B.Cu) (net 2))
  (segment (start 88.2525 97.5) (end 88.2525 100.5) (width 0.25) (layer F.Cu) (net 2))
  (segment (start 88.2525 97.5) (end 88.2525 100.5) (width 0.25) (layer B.Cu) (net 2))
  (segment (start 88.2525 100.5) (end 88.2525 139.5075) (width 0.25) (layer B.Cu) (net 2))
  (via (at 111.7475 100.5) (size 0.6) (drill 0.35) (layers F.Cu B.Cu) (net 2))
  (segment (start 111.7475 97.5) (end 111.7475 100.5) (width 0.25) (layer B.Cu) (net 2))
  (segment (start 111.7475 97.5) (end 111.7475 100.5) (width 0.25) (layer F.Cu) (net 2))
  (segment (start 111.7475 100.5) (end 111.7475 139.5275) (width 0.25) (layer F.Cu) (net 2))
  (segment (start 82.22 112.54) (end 83.681399 111.078601) (width 0.1524) (layer F.Cu) (net 3))
  (segment (start 83.681399 111.078601) (end 85.277729 111.078601) (width 0.1524) (layer F.Cu) (net 3))
  (segment (start 88.8875 107.46883) (end 88.8875 99.6524) (width 0.1524) (layer F.Cu) (net 3))
  (segment (start 85.277729 111.078601) (end 88.8875 107.46883) (width 0.1524) (layer F.Cu) (net 3))
  (segment (start 88.8875 99.6524) (end 88.8875 97.5) (width 0.1524) (layer F.Cu) (net 3))
  (segment (start 84.86 112.54) (end 89.5225 107.8775) (width 0.1524) (layer F.Cu) (net 4))
  (segment (start 84.76 112.54) (end 84.86 112.54) (width 0.1524) (layer F.Cu) (net 4))
  (segment (start 89.5225 107.8775) (end 89.5225 99.6524) (width 0.1524) (layer F.Cu) (net 4))
  (segment (start 89.5225 99.6524) (end 89.5225 97.5) (width 0.1524) (layer F.Cu) (net 4))
  (segment (start 90.7925 108.140647) (end 90.7925 99.6524) (width 0.1524) (layer F.Cu) (net 5))
  (segment (start 85.333147 113.6) (end 90.7925 108.140647) (width 0.1524) (layer F.Cu) (net 5))
  (segment (start 85.277729 113.618601) (end 85.29633 113.6) (width 0.1524) (layer F.Cu) (net 5))
  (segment (start 82.22 115.08) (end 83.681399 113.618601) (width 0.1524) (layer F.Cu) (net 5))
  (segment (start 85.29633 113.6) (end 85.333147 113.6) (width 0.1524) (layer F.Cu) (net 5))
  (segment (start 83.681399 113.618601) (end 85.277729 113.618601) (width 0.1524) (layer F.Cu) (net 5))
  (segment (start 90.7925 99.6524) (end 90.7925 97.5) (width 0.1524) (layer F.Cu) (net 5))
  (segment (start 84.76 115.08) (end 84.76 115.04) (width 0.1524) (layer F.Cu) (net 6))
  (segment (start 84.76 115.04) (end 91.4275 108.3725) (width 0.1524) (layer F.Cu) (net 6))
  (segment (start 91.4275 108.3725) (end 91.4275 99.6524) (width 0.1524) (layer F.Cu) (net 6))
  (segment (start 91.4275 99.6524) (end 91.4275 97.5) (width 0.1524) (layer F.Cu) (net 6))
  (segment (start 92.6975 108.775647) (end 92.6975 99.6524) (width 0.1524) (layer F.Cu) (net 7))
  (segment (start 92.6975 99.6524) (end 92.6975 97.5) (width 0.1524) (layer F.Cu) (net 7))
  (segment (start 82.22 117.62) (end 83.681399 116.158601) (width 0.1524) (layer F.Cu) (net 7))
  (segment (start 83.681399 116.158601) (end 85.314546 116.158601) (width 0.1524) (layer F.Cu) (net 7))
  (segment (start 85.314546 116.158601) (end 92.6975 108.775647) (width 0.1524) (layer F.Cu) (net 7))
  (segment (start 93.3325 109.0475) (end 93.3325 97.5) (width 0.1524) (layer F.Cu) (net 8))
  (segment (start 84.76 117.62) (end 93.3325 109.0475) (width 0.1524) (layer F.Cu) (net 8))
  (segment (start 94.6025 109.37383) (end 94.6025 99.6524) (width 0.1524) (layer F.Cu) (net 9))
  (segment (start 94.6025 99.6524) (end 94.6025 97.5) (width 0.1524) (layer F.Cu) (net 9))
  (segment (start 83.681399 118.698601) (end 85.277729 118.698601) (width 0.1524) (layer F.Cu) (net 9))
  (segment (start 85.277729 118.698601) (end 94.6025 109.37383) (width 0.1524) (layer F.Cu) (net 9))
  (segment (start 82.22 120.16) (end 83.681399 118.698601) (width 0.1524) (layer F.Cu) (net 9))
  (segment (start 84.76 120.16) (end 95.2375 109.6825) (width 0.1524) (layer F.Cu) (net 10))
  (segment (start 95.2375 109.6825) (end 95.2375 97.5) (width 0.1524) (layer F.Cu) (net 10))
  (segment (start 96.5075 110.00883) (end 96.5075 99.6524) (width 0.1524) (layer F.Cu) (net 11))
  (segment (start 96.5075 99.6524) (end 96.5075 97.5) (width 0.1524) (layer F.Cu) (net 11))
  (segment (start 82.22 122.7) (end 83.681399 121.238601) (width 0.1524) (layer F.Cu) (net 11))
  (segment (start 83.681399 121.238601) (end 85.277729 121.238601) (width 0.1524) (layer F.Cu) (net 11))
  (segment (start 85.277729 121.238601) (end 96.5075 110.00883) (width 0.1524) (layer F.Cu) (net 11))
  (segment (start 97.1425 99.6524) (end 97.1425 97.5) (width 0.1524) (layer F.Cu) (net 12))
  (segment (start 97.1425 110.3575) (end 97.1425 99.6524) (width 0.1524) (layer F.Cu) (net 12))
  (segment (start 84.8 122.7) (end 97.1425 110.3575) (width 0.1524) (layer F.Cu) (net 12))
  (segment (start 84.76 122.7) (end 84.8 122.7) (width 0.1524) (layer F.Cu) (net 12))
  (segment (start 98.4125 99.6524) (end 98.4125 97.5) (width 0.1524) (layer F.Cu) (net 13))
  (segment (start 83.681399 123.778601) (end 85.314546 123.778601) (width 0.1524) (layer F.Cu) (net 13))
  (segment (start 82.22 125.24) (end 83.681399 123.778601) (width 0.1524) (layer F.Cu) (net 13))
  (segment (start 85.314546 123.778601) (end 98.4125 110.680647) (width 0.1524) (layer F.Cu) (net 13))
  (segment (start 98.4125 110.680647) (end 98.4125 99.6524) (width 0.1524) (layer F.Cu) (net 13))
  (segment (start 84.76 125.24) (end 99.0475 110.9525) (width 0.1524) (layer F.Cu) (net 14))
  (segment (start 99.0475 110.9525) (end 99.0475 97.5) (width 0.1524) (layer F.Cu) (net 14))
  (segment (start 82.22 127.78) (end 83.681399 126.318601) (width 0.1524) (layer F.Cu) (net 15))
  (segment (start 85.277729 126.318601) (end 100.9525 110.64383) (width 0.1524) (layer F.Cu) (net 15))
  (segment (start 83.681399 126.318601) (end 85.277729 126.318601) (width 0.1524) (layer F.Cu) (net 15))
  (segment (start 100.9525 99.6524) (end 100.9525 97.5) (width 0.1524) (layer F.Cu) (net 15))
  (segment (start 100.9525 110.64383) (end 100.9525 99.6524) (width 0.1524) (layer F.Cu) (net 15))
  (segment (start 101.5875 110.9525) (end 101.5875 97.5) (width 0.1524) (layer F.Cu) (net 16))
  (segment (start 84.76 127.78) (end 101.5875 110.9525) (width 0.1524) (layer F.Cu) (net 16))
  (segment (start 103.4925 111.5875) (end 103.4925 97.5) (width 0.1524) (layer F.Cu) (net 17))
  (segment (start 84.76 130.32) (end 103.4925 111.5875) (width 0.1524) (layer F.Cu) (net 17))
  (segment (start 102.8575 99.6524) (end 102.8575 97.5) (width 0.1524) (layer F.Cu) (net 18))
  (segment (start 82.22 130.32) (end 83.681399 128.858601) (width 0.1524) (layer F.Cu) (net 18))
  (segment (start 102.8575 111.27883) (end 102.8575 99.6524) (width 0.1524) (layer F.Cu) (net 18))
  (segment (start 85.277729 128.858601) (end 102.8575 111.27883) (width 0.1524) (layer F.Cu) (net 18))
  (segment (start 83.681399 128.858601) (end 85.277729 128.858601) (width 0.1524) (layer F.Cu) (net 18))
  (segment (start 104.7625 99.6524) (end 104.7625 97.5) (width 0.1524) (layer F.Cu) (net 19))
  (segment (start 83.681399 131.398601) (end 85.277729 131.398601) (width 0.1524) (layer F.Cu) (net 19))
  (segment (start 85.277729 131.398601) (end 104.7625 111.91383) (width 0.1524) (layer F.Cu) (net 19))
  (segment (start 104.7625 111.91383) (end 104.7625 99.6524) (width 0.1524) (layer F.Cu) (net 19))
  (segment (start 82.22 132.86) (end 83.681399 131.398601) (width 0.1524) (layer F.Cu) (net 19))
  (segment (start 105.3975 112.2225) (end 105.3975 97.5) (width 0.1524) (layer F.Cu) (net 20))
  (segment (start 84.76 132.86) (end 105.3975 112.2225) (width 0.1524) (layer F.Cu) (net 20))
  (segment (start 106.6675 112.54883) (end 106.6675 99.6524) (width 0.1524) (layer F.Cu) (net 21))
  (segment (start 106.6675 99.6524) (end 106.6675 97.5) (width 0.1524) (layer F.Cu) (net 21))
  (segment (start 82.22 135.4) (end 83.62 134) (width 0.1524) (layer F.Cu) (net 21))
  (segment (start 85.21633 134) (end 106.6675 112.54883) (width 0.1524) (layer F.Cu) (net 21))
  (segment (start 83.62 134) (end 85.21633 134) (width 0.1524) (layer F.Cu) (net 21))
  (segment (start 107.3025 112.8575) (end 107.3025 97.5) (width 0.1524) (layer F.Cu) (net 22))
  (segment (start 84.76 135.4) (end 107.3025 112.8575) (width 0.1524) (layer F.Cu) (net 22))
  (segment (start 83.66 136.5) (end 85.25633 136.5) (width 0.1524) (layer F.Cu) (net 23))
  (segment (start 85.25633 136.5) (end 108.5725 113.18383) (width 0.1524) (layer F.Cu) (net 23))
  (segment (start 108.5725 113.18383) (end 108.5725 99.6524) (width 0.1524) (layer F.Cu) (net 23))
  (segment (start 108.5725 99.6524) (end 108.5725 97.5) (width 0.1524) (layer F.Cu) (net 23))
  (segment (start 82.22 137.94) (end 83.66 136.5) (width 0.1524) (layer F.Cu) (net 23))
  (segment (start 84.76 137.94) (end 109.2075 113.4925) (width 0.1524) (layer F.Cu) (net 24))
  (segment (start 109.2075 113.4925) (end 109.2075 97.5) (width 0.1524) (layer F.Cu) (net 24))
  (segment (start 85.277729 139.018601) (end 110.4775 113.81883) (width 0.1524) (layer F.Cu) (net 25))
  (segment (start 110.4775 113.81883) (end 110.4775 99.6524) (width 0.1524) (layer F.Cu) (net 25))
  (segment (start 83.681399 139.018601) (end 85.277729 139.018601) (width 0.1524) (layer F.Cu) (net 25))
  (segment (start 110.4775 99.6524) (end 110.4775 97.5) (width 0.1524) (layer F.Cu) (net 25))
  (segment (start 82.22 140.48) (end 83.681399 139.018601) (width 0.1524) (layer F.Cu) (net 25))
  (segment (start 111.1125 114.1275) (end 111.1125 97.5) (width 0.1524) (layer F.Cu) (net 26))
  (segment (start 84.76 140.48) (end 111.1125 114.1275) (width 0.1524) (layer F.Cu) (net 26))
  (segment (start 116.701399 141.558601) (end 116.930001 141.329999) (width 0.1524) (layer B.Cu) (net 27))
  (segment (start 114.722271 141.558601) (end 116.701399 141.558601) (width 0.1524) (layer B.Cu) (net 27))
  (segment (start 116.930001 141.329999) (end 117.78 140.48) (width 0.1524) (layer B.Cu) (net 27))
  (segment (start 88.8875 97.5) (end 88.8875 115.72383) (width 0.1524) (layer B.Cu) (net 27))
  (segment (start 88.8875 115.72383) (end 114.722271 141.558601) (width 0.1524) (layer B.Cu) (net 27))
  (segment (start 89.5225 114.7625) (end 115.24 140.48) (width 0.1524) (layer B.Cu) (net 28))
  (segment (start 89.5225 97.5) (end 89.5225 114.7625) (width 0.1524) (layer B.Cu) (net 28))
  (segment (start 114.80367 139.1) (end 90.7925 115.08883) (width 0.1524) (layer B.Cu) (net 29))
  (segment (start 90.7925 115.08883) (end 90.7925 99.6524) (width 0.1524) (layer B.Cu) (net 29))
  (segment (start 90.7925 99.6524) (end 90.7925 97.5) (width 0.1524) (layer B.Cu) (net 29))
  (segment (start 116.62 139.1) (end 114.80367 139.1) (width 0.1524) (layer B.Cu) (net 29))
  (segment (start 117.78 137.94) (end 116.62 139.1) (width 0.1524) (layer B.Cu) (net 29))
  (segment (start 91.4275 97.5) (end 91.4275 114.1275) (width 0.1524) (layer B.Cu) (net 30))
  (segment (start 91.4275 114.1275) (end 115.24 137.94) (width 0.1524) (layer B.Cu) (net 30))
  (segment (start 116.930001 136.249999) (end 117.78 135.4) (width 0.1524) (layer B.Cu) (net 31))
  (segment (start 92.6975 97.5) (end 92.6975 114.45383) (width 0.1524) (layer B.Cu) (net 31))
  (segment (start 92.6975 114.45383) (end 114.722271 136.478601) (width 0.1524) (layer B.Cu) (net 31))
  (segment (start 116.701399 136.478601) (end 116.930001 136.249999) (width 0.1524) (layer B.Cu) (net 31))
  (segment (start 114.722271 136.478601) (end 116.701399 136.478601) (width 0.1524) (layer B.Cu) (net 31))
  (segment (start 93.3325 113.4925) (end 93.3325 97.5) (width 0.1524) (layer B.Cu) (net 32))
  (segment (start 115.24 135.4) (end 93.3325 113.4925) (width 0.1524) (layer B.Cu) (net 32))
  (segment (start 94.6025 97.5) (end 94.6025 113.81883) (width 0.1524) (layer B.Cu) (net 33))
  (segment (start 116.930001 133.709999) (end 117.78 132.86) (width 0.1524) (layer B.Cu) (net 33))
  (segment (start 94.6025 113.81883) (end 114.722271 133.938601) (width 0.1524) (layer B.Cu) (net 33))
  (segment (start 114.722271 133.938601) (end 116.701399 133.938601) (width 0.1524) (layer B.Cu) (net 33))
  (segment (start 116.701399 133.938601) (end 116.930001 133.709999) (width 0.1524) (layer B.Cu) (net 33))
  (segment (start 95.2375 112.8575) (end 95.2375 97.5) (width 0.1524) (layer B.Cu) (net 34))
  (segment (start 115.24 132.86) (end 95.2375 112.8575) (width 0.1524) (layer B.Cu) (net 34))
  (segment (start 114.722271 131.398601) (end 116.701399 131.398601) (width 0.1524) (layer B.Cu) (net 35))
  (segment (start 96.5075 97.5) (end 96.5075 113.18383) (width 0.1524) (layer B.Cu) (net 35))
  (segment (start 96.5075 113.18383) (end 114.722271 131.398601) (width 0.1524) (layer B.Cu) (net 35))
  (segment (start 116.930001 131.169999) (end 117.78 130.32) (width 0.1524) (layer B.Cu) (net 35))
  (segment (start 116.701399 131.398601) (end 116.930001 131.169999) (width 0.1524) (layer B.Cu) (net 35))
  (segment (start 97.1425 112.2225) (end 97.1425 97.5) (width 0.1524) (layer B.Cu) (net 36))
  (segment (start 115.24 130.32) (end 97.1425 112.2225) (width 0.1524) (layer B.Cu) (net 36))
  (segment (start 116.930001 128.629999) (end 117.78 127.78) (width 0.1524) (layer B.Cu) (net 37))
  (segment (start 116.701399 128.858601) (end 116.930001 128.629999) (width 0.1524) (layer B.Cu) (net 37))
  (segment (start 98.4125 112.54883) (end 114.722271 128.858601) (width 0.1524) (layer B.Cu) (net 37))
  (segment (start 114.722271 128.858601) (end 116.701399 128.858601) (width 0.1524) (layer B.Cu) (net 37))
  (segment (start 98.4125 97.5) (end 98.4125 112.54883) (width 0.1524) (layer B.Cu) (net 37))
  (segment (start 99.0475 111.5475) (end 99.0475 97.5) (width 0.1524) (layer B.Cu) (net 38))
  (segment (start 115.24 127.78) (end 115.24 127.74) (width 0.1524) (layer B.Cu) (net 38))
  (segment (start 115.24 127.74) (end 99.0475 111.5475) (width 0.1524) (layer B.Cu) (net 38))
  (segment (start 116.701399 126.318601) (end 116.930001 126.089999) (width 0.1524) (layer B.Cu) (net 39))
  (segment (start 100.9525 112.54883) (end 114.722271 126.318601) (width 0.1524) (layer B.Cu) (net 39))
  (segment (start 100.9525 97.5) (end 100.9525 112.54883) (width 0.1524) (layer B.Cu) (net 39))
  (segment (start 116.930001 126.089999) (end 117.78 125.24) (width 0.1524) (layer B.Cu) (net 39))
  (segment (start 114.722271 126.318601) (end 116.701399 126.318601) (width 0.1524) (layer B.Cu) (net 39))
  (segment (start 101.5875 111.5875) (end 101.5875 97.5) (width 0.1524) (layer B.Cu) (net 40))
  (segment (start 115.24 125.24) (end 101.5875 111.5875) (width 0.1524) (layer B.Cu) (net 40))
  (segment (start 116.930001 123.549999) (end 117.78 122.7) (width 0.1524) (layer B.Cu) (net 41))
  (segment (start 116.701399 123.778601) (end 116.930001 123.549999) (width 0.1524) (layer B.Cu) (net 41))
  (segment (start 102.8575 97.5) (end 102.8575 111.8575) (width 0.1524) (layer B.Cu) (net 41))
  (segment (start 114.778601 123.778601) (end 116.701399 123.778601) (width 0.1524) (layer B.Cu) (net 41))
  (segment (start 102.8575 111.8575) (end 114.778601 123.778601) (width 0.1524) (layer B.Cu) (net 41))
  (segment (start 103.4925 110.9525) (end 103.4925 97.5) (width 0.1524) (layer B.Cu) (net 42))
  (segment (start 115.24 122.7) (end 103.4925 110.9525) (width 0.1524) (layer B.Cu) (net 42))
  (segment (start 116.701399 121.238601) (end 116.930001 121.009999) (width 0.1524) (layer B.Cu) (net 43))
  (segment (start 104.7625 111.27883) (end 114.722271 121.238601) (width 0.1524) (layer B.Cu) (net 43))
  (segment (start 116.930001 121.009999) (end 117.78 120.16) (width 0.1524) (layer B.Cu) (net 43))
  (segment (start 114.722271 121.238601) (end 116.701399 121.238601) (width 0.1524) (layer B.Cu) (net 43))
  (segment (start 104.7625 97.5) (end 104.7625 111.27883) (width 0.1524) (layer B.Cu) (net 43))
  (segment (start 105.3975 110.3175) (end 105.3975 97.5) (width 0.1524) (layer B.Cu) (net 44))
  (segment (start 115.24 120.16) (end 105.3975 110.3175) (width 0.1524) (layer B.Cu) (net 44))
  (segment (start 116.930001 118.469999) (end 117.78 117.62) (width 0.1524) (layer B.Cu) (net 45))
  (segment (start 106.6675 110.64383) (end 114.722271 118.698601) (width 0.1524) (layer B.Cu) (net 45))
  (segment (start 114.722271 118.698601) (end 116.701399 118.698601) (width 0.1524) (layer B.Cu) (net 45))
  (segment (start 116.701399 118.698601) (end 116.930001 118.469999) (width 0.1524) (layer B.Cu) (net 45))
  (segment (start 106.6675 97.5) (end 106.6675 110.64383) (width 0.1524) (layer B.Cu) (net 45))
  (segment (start 107.3025 109.6825) (end 107.3025 97.5) (width 0.1524) (layer B.Cu) (net 46))
  (segment (start 115.24 117.62) (end 107.3025 109.6825) (width 0.1524) (layer B.Cu) (net 46))
  (segment (start 116.701399 116.158601) (end 116.930001 115.929999) (width 0.1524) (layer B.Cu) (net 47))
  (segment (start 116.930001 115.929999) (end 117.78 115.08) (width 0.1524) (layer B.Cu) (net 47))
  (segment (start 114.722271 116.158601) (end 116.701399 116.158601) (width 0.1524) (layer B.Cu) (net 47))
  (segment (start 108.5725 110.00883) (end 114.722271 116.158601) (width 0.1524) (layer B.Cu) (net 47))
  (segment (start 108.5725 97.5) (end 108.5725 110.00883) (width 0.1524) (layer B.Cu) (net 47))
  (segment (start 109.2075 109.0475) (end 109.2075 97.5) (width 0.1524) (layer B.Cu) (net 48))
  (segment (start 115.24 115.08) (end 109.2075 109.0475) (width 0.1524) (layer B.Cu) (net 48))
  (segment (start 116.930001 113.389999) (end 117.78 112.54) (width 0.1524) (layer B.Cu) (net 49))
  (segment (start 114.722271 113.618601) (end 116.701399 113.618601) (width 0.1524) (layer B.Cu) (net 49))
  (segment (start 116.701399 113.618601) (end 116.930001 113.389999) (width 0.1524) (layer B.Cu) (net 49))
  (segment (start 110.4775 109.37383) (end 114.722271 113.618601) (width 0.1524) (layer B.Cu) (net 49))
  (segment (start 110.4775 97.5) (end 110.4775 109.37383) (width 0.1524) (layer B.Cu) (net 49))
  (segment (start 111.1125 108.4125) (end 111.1125 99.6524) (width 0.1524) (layer B.Cu) (net 50))
  (segment (start 111.1125 99.6524) (end 111.1125 97.5) (width 0.1524) (layer B.Cu) (net 50))
  (segment (start 115.24 112.54) (end 111.1125 108.4125) (width 0.1524) (layer B.Cu) (net 50))

)
