G04 #@! TF.GenerationSoftware,KiCad,Pcbnew,(5.0.0-rc2-227-g9b1f2447b)*
G04 #@! TF.CreationDate,2018-07-22T14:16:08-05:00*
G04 #@! TF.ProjectId,breakout-card,627265616B6F75742D636172642E6B69,rev?*
G04 #@! TF.SameCoordinates,Original*
G04 #@! TF.FileFunction,Profile,NP*
%FSLAX46Y46*%
G04 Gerber Fmt 4.6, Leading zero omitted, Abs format (unit mm)*
G04 Created by KiCad (PCBNEW (5.0.0-rc2-227-g9b1f2447b)) date Sun Jul 22 14:16:08 2018*
%MOMM*%
%LPD*%
G01*
G04 APERTURE LIST*
%ADD10C,0.150000*%
G04 #@! TA.AperFunction,NonConductor*
%ADD11C,0.150000*%
G04 #@! TD*
G04 APERTURE END LIST*
D10*
X120000000Y-107500000D02*
X120000000Y-150000000D01*
X120000000Y-100000000D02*
X120000000Y-102500000D01*
X120000000Y-107500000D02*
G75*
G02X120000000Y-102500000I0J2500000D01*
G01*
X80000000Y-107500000D02*
X80000000Y-150000000D01*
X80000000Y-100000000D02*
X80000000Y-102500000D01*
X80000000Y-102500000D02*
G75*
G02X80000000Y-107500000I0J-2500000D01*
G01*
X102500000Y-150000000D02*
X120000000Y-150000000D01*
X80000000Y-150000000D02*
X97500000Y-150000000D01*
X97500000Y-150000000D02*
G75*
G02X102500000Y-150000000I2500000J0D01*
G01*
X113400000Y-100000000D02*
X120000000Y-100000000D01*
X86600000Y-100000000D02*
X80000000Y-100000000D01*
D11*
G04 #@! TO.C, *
X113400000Y-94500000D02*
X113400000Y-100000000D01*
X86600000Y-94500000D02*
X86600000Y-100000000D01*
X86600000Y-94500000D02*
X113400000Y-94500000D01*
G04 #@! TD*
M02*
