M48
;DRILL file {KiCad (5.0.0-rc2-227-g9b1f2447b)} date Sun Jul 22 14:16:14 2018
;FORMAT={-:-/ absolute / inch / decimal}
FMAT,2
INCH,TZ
T1C0.0138
T2C0.0394
%
G90
G05
M72
T1
X3.4745Y-3.9567
X3.5512Y-3.9409
X3.626Y-3.9409
X3.7008Y-3.9409
X3.7756Y-3.9409
X3.8504Y-3.9409
X3.937Y-3.9409
X4.0236Y-3.9409
X4.0984Y-3.9409
X4.1732Y-3.9409
X4.248Y-3.9409
X4.3228Y-3.9409
X4.3995Y-3.9567
T2
X4.537Y-4.3307
X4.537Y-4.4307
X4.537Y-4.5307
X4.537Y-4.6307
X4.537Y-4.7307
X4.537Y-4.8307
X4.537Y-4.9307
X4.537Y-5.0307
X4.537Y-5.1307
X4.537Y-5.2307
X4.537Y-5.3307
X4.537Y-5.4307
X4.537Y-5.5307
X4.537Y-5.6307
X4.637Y-4.3307
X4.637Y-4.4307
X4.637Y-4.5307
X4.637Y-4.6307
X4.637Y-4.7307
X4.637Y-4.8307
X4.637Y-4.9307
X4.637Y-5.0307
X4.637Y-5.1307
X4.637Y-5.2307
X4.637Y-5.3307
X4.637Y-5.4307
X4.637Y-5.5307
X4.637Y-5.6307
X3.237Y-4.3307
X3.237Y-4.4299
X3.237Y-4.5299
X3.237Y-4.6299
X3.237Y-4.7299
X3.237Y-4.8299
X3.237Y-4.9299
X3.237Y-5.0299
X3.237Y-5.1299
X3.237Y-5.2299
X3.237Y-5.3299
X3.237Y-5.4299
X3.237Y-5.5299
X3.237Y-5.6299
X3.337Y-4.3299
X3.337Y-4.4299
X3.337Y-4.5299
X3.337Y-4.6299
X3.337Y-4.7299
X3.337Y-4.8299
X3.337Y-4.9299
X3.337Y-5.0299
X3.337Y-5.1299
X3.337Y-5.2299
X3.337Y-5.3299
X3.337Y-5.4299
X3.337Y-5.5299
X3.337Y-5.6299
T0
M30
