G04 #@! TF.GenerationSoftware,KiCad,Pcbnew,(5.0.0-rc2-227-g9b1f2447b)*
G04 #@! TF.CreationDate,2018-07-22T10:42:15-05:00*
G04 #@! TF.ProjectId,robot-card,726F626F742D636172642E6B69636164,rev?*
G04 #@! TF.SameCoordinates,Original*
G04 #@! TF.FileFunction,Paste,Bot*
G04 #@! TF.FilePolarity,Positive*
%FSLAX46Y46*%
G04 Gerber Fmt 4.6, Leading zero omitted, Abs format (unit mm)*
G04 Created by KiCad (PCBNEW (5.0.0-rc2-227-g9b1f2447b)) date Sun Jul 22 10:42:15 2018*
%MOMM*%
%LPD*%
G01*
G04 APERTURE LIST*
G04 APERTURE END LIST*
M02*
